Google Play Store App Data and How To Use It
…
## Warning in type_convert_col(char_cols[[i]], specs$cols[[i]],
## which(is_character)[i], : [10472, 11]: expected date like %B %d, %Y, but
## got '1.0.19'

main_data$Genres = NULL
main_data$Size = gsub("M","",main_data$Size)
main_data$Size = as.numeric(gsub("Varies with device","0",main_data$Size))

## Warning: NAs introduced by coercion

main_data %>%
  replace_na(list(Rating=0))

## # A tibble: 10,841 x 12
##    App   Category Rating Reviews  Size Installs Type  Price
##    <chr> <chr>     <dbl>   <dbl> <dbl>    <dbl> <chr> <dbl>
##  1 Phot ART_AND    4.1     159  19      10000 Free      0
##  2 Colo ART_AND    3.9     967  14     500000 Free      0
##  3 U La ART_AND    4.7   87510   8.7  5000000 Free      0
##  4 Sket ART_AND    4.5  215644  25   50000000 Free      0
##  5 Pixe ART_AND    4.3     967   2.8   100000 Free      0
##  6 Pape ART_AND    4.4     167   5.6    50000 Free      0
##  7 Smok ART_AND    3.8     178  19      50000 Free      0
##  8 Infi ART_AND    4.1   36815  29    1000000 Free      0
##  9 Gard ART_AND    4.4   13791  33    1000000 Free      0
## 10 Kids ART_AND    4.7     121   3.1    10000 Free      0
## #  with 10,831 more rows, and 4 more variables: `Content Rating` <chr>,
## #   `Last Updated` <dttm>, `Current Ver` <chr>, `Android Ver` <chr>

main_data

## # A tibble: 10,841 x 12
##    App   Category Rating Reviews  Size Installs Type  Price
##    <chr> <chr>     <dbl>   <dbl> <dbl>    <dbl> <chr> <dbl>
##  1 Phot ART_AND    4.1     159  19      10000 Free      0
##  2 Colo ART_AND    3.9     967  14     500000 Free      0
##  3 U La ART_AND    4.7   87510   8.7  5000000 Free      0
##  4 Sket ART_AND    4.5  215644  25   50000000 Free      0
##  5 Pixe ART_AND    4.3     967   2.8   100000 Free      0
##  6 Pape ART_AND    4.4     167   5.6    50000 Free      0
##  7 Smok ART_AND    3.8     178  19      50000 Free      0
##  8 Infi ART_AND    4.1   36815  29    1000000 Free      0
##  9 Gard ART_AND    4.4   13791  33    1000000 Free      0
## 10 Kids ART_AND    4.7     121   3.1    10000 Free      0
## #  with 10,831 more rows, and 4 more variables: `Content Rating` <chr>,
## #   `Last Updated` <dttm>, `Current Ver` <chr>, `Android Ver` <chr>

Exploratory Data Analysis

Now that our data is fully prepared, its time to see what information we can collect. For the purposes of this tutorial, lets go over some basic functions in R. In R, we have a method called filter which will filter out entries based on a condition. So, for example, we want to find the really popular apps and our definition of popular is an app that gains more than 1,000,000 downloads. Well, with our already clean data, we can acquire that information like this. In addition, lets make a modification in our main table to identify which apps are popular.

main_data <- main_data %>%
  mutate(is_popular=ifelse(Installs < 1000000,FALSE,TRUE))
popular_apps <- filter(main_data,Installs > 1000000)
popular_apps

## # A tibble: 2,832 x 13
##    App   Category Rating Reviews  Size Installs Type  Price
##    <chr> <chr>     <dbl>   <dbl> <dbl>    <dbl> <chr> <dbl>
##  1 U La ART_AND    4.7   87510   8.7  5000000 Free      0
##  2 Sket ART_AND    4.5  215644  25   50000000 Free      0
##  3 Tatt ART_AND    4.2   44829  20   10000000 Free      0
##  4 Flip ART_AND    4.3  194216  39    5000000 Free      0
##  5 ibis ART_AND    4.6  224399  31   10000000 Free      0
##  6 Floo ART_AND    4.1   36639   0    5000000 Free      0
##  7 Text ART_AND    4.4  295221   0   10000000 Free      0
##  8 Canv ART_AND    4.7  174531  24   10000000 Free      0
##  9 Ulys AUTO_AN    4.3   40211   0    5000000 Free      0
## 10 Used AUTO_AN    4.2   52530   7    5000000 Free      0
## #  with 2,822 more rows, and 5 more variables: `Content Rating` <chr>,
## #   `Last Updated` <dttm>, `Current Ver` <chr>, `Android Ver` <chr>,
## #   is_popular <lgl>

Wow, truly an incredible feat of technology. However, we can go one step further and try and see some summary stats. We can do this by grouping these apps by their category. So for this example, to keep the numbers simple, well be using the table we just created of all the popular apps. Lets see, well do total number of installs, total number of reviews, ratio of installs to reviews, and average rating. Were doing everything so try and keep up.

popular_apps %>%
  group_by(Category) %>%
  summarize(total_installs=sum(Installs),total_review=sum(Reviews),ratio_install_to_review=total_installs/total_review,average_rating=mean(Rating)) %>%
  arrange(desc(total_installs))

## # A tibble: 33 x 5
##    Category    total_installs total_review ratio_install_to average_rating
##    <chr>                <dbl>        <dbl>             <dbl>          <dbl>
##  1 GAME           34875000000   1576292417              22.1           4.39
##  2 COMMUNICAT    32595000000    813582106              40.1           4.28
##  3 PRODUCTIVI    14105000000    111662753             126.            4.34
##  4 SOCIAL         14025000000    619786958              22.6           4.29
##  5 TOOLS          11325000000    270148590              41.9           4.26
##  6 PHOTOGRAPHY    10025000000    211860819              47.3           4.33
##  7 FAMILY          9895000000    397935606              24.9           4.27
##  8 NEWS_AND_M     7435000000     52348703             142.            4.22
##  9 TRAVEL_AND     6820000000     61684951             111.            4.23
## 10 VIDEO_PLAY     6185000000    109732749              56.4           4.29
## #  with 23 more rows

A lot of juicy information in the table above all depending on what you sort it by. In our case, we arranged the inforamtion in descending order based on total installs. To nobodys surprise, the game category has an explosive lead in terms of total_installs. Other cool things to note is that the average rating for every category hovers around 4.2/4.3 range. This is probably because our sample size is just the most popular apps as opposed to our entire data set.

Another useful method is the select method which allows us to select particular attributes from tables. For example, if we wanted to streamline our data processing by only looking at the attributes that we will be using, we can use the select function.

useful_att <- main_data %>%
  select("App","Installs","Category","Last Updated","Size")
useful_att

## # A tibble: 10,841 x 5
##    App                        Installs Category   `Last Updated`       Size
##    <chr>                         <dbl> <chr>      <dttm>              <dbl>
##  1 Photo Editor & Candy Came    10000 ART_AND_D 2018-01-07 00:00:00  19  
##  2 Coloring book moana          500000 ART_AND_D 2018-01-15 00:00:00  14  
##  3 U Launcher Lite  FREE Li  5000000 ART_AND_D 2018-08-01 00:00:00   8.7
##  4 Sketch - Draw & Paint      50000000 ART_AND_D 2018-06-08 00:00:00  25  
##  5 Pixel Draw - Number Art C   100000 ART_AND_D 2018-06-20 00:00:00   2.8
##  6 Paper flowers instructions    50000 ART_AND_D 2017-03-26 00:00:00   5.6
##  7 Smoke Effect Photo Maker     50000 ART_AND_D 2018-04-26 00:00:00  19  
##  8 Infinite Painter            1000000 ART_AND_D 2018-06-14 00:00:00  29  
##  9 Garden Coloring Book        1000000 ART_AND_D 2017-09-20 00:00:00  33  
## 10 Kids Paint Free - Drawing    10000 ART_AND_D 2018-07-03 00:00:00   3.1
## #  with 10,831 more rows

With these tools, we can gather important information like summary statistics by category.

most_pop <- main_data %>%
  group_by(Category) %>%
  summarize(min=min(Installs),max=max(Installs),mean=mean(Installs)) %>%
  arrange(desc(mean))
most_pop

## # A tibble: 34 x 4
##    Category             min        max      mean
##    <chr>              <dbl>      <dbl>     <dbl>
##  1 COMMUNICATION          1 1000000000 84359887.
##  2 SOCIAL                 0 1000000000 47694467.
##  3 VIDEO_PLAYERS         10 1000000000 35554301.
##  4 PRODUCTIVITY           0 1000000000 33434178.
##  5 GAME                   1 1000000000 30669602.
##  6 PHOTOGRAPHY            5 1000000000 30114172.
##  7 TRAVEL_AND_LOCAL       0 1000000000 26623594.
##  8 NEWS_AND_MAGAZINES     0 1000000000 26488755.
##  9 ENTERTAINMENT      10000 1000000000 19256107.
## 10 TOOLS                  1 1000000000 13585732.
## #  with 24 more rows
…
## 
## Call:
## lm(formula = Installs ~ `Last Updated`, data = unpopular_apps)
## 
## Coefficients:
##    (Intercept)  `Last Updated`  
##     -2.224e+06       1.642e-03

From this linear regression, we can conclude many things about the data we are looking at. Assuming linearity, the intercept for each regression represents how many installs an app would have to start at the very beginning of time which is less important for our uses since were only talking about a particular time frame starting from around 2010. However, more importantly is the coefficient of the regression which represents how many installs one can expect by updating their app one day later. We can see that for the popular app this coefficient is much larger indicating that a more recent update will lead to a higher increase in installs. One additional thing that we can check however, is how other factors play into the success of an app. Last updated date is just one aspect that we can check however, I hypothesize that category can also play an important factor in determining how successful an app can be. In order to do that, we have to add an interaction term for category

pop_interaction <- lm(Installs~`Last Updated`*Category,data=popular_apps)
tidy(pop_interaction) %>%
  arrange(desc(estimate))

## # A tibble: 66 x 5
##    term                                estimate std.error statistic p.value
##    <chr>                                  <dbl>     <dbl>     <dbl>   <dbl>
##  1 CategoryPARENTING                    2.75e10   1.27e12    0.0217   0.983
##  2 (Intercept)                          2.02e 9   2.32e10    0.0870   0.931
##  3 `Last Updated`:CategoryNEWS_AND_MA  1.71e 1   1.67e 1    1.02     0.306
##  4 `Last Updated`:CategorySHOPPING      5.40e 0   1.72e 1    0.313    0.754
##  5 `Last Updated`:CategoryCOMMUNICATI  4.35e 0   1.51e 1    0.288    0.774
##  6 `Last Updated`:CategoryHEALTH_AND_  3.99e 0   1.68e 1    0.237    0.812
##  7 `Last Updated`:CategoryPRODUCTIVITY  3.80e 0   1.51e 1    0.251    0.802
##  8 `Last Updated`:CategorySOCIAL        3.58e 0   1.52e 1    0.236    0.813
##  9 `Last Updated`:CategoryTRAVEL_AND_  3.52e 0   1.52e 1    0.231    0.817
## 10 `Last Updated`:CategoryVIDEO_PLAYE  2.54e 0   1.51e 1    0.168    0.867
## #  with 56 more rows
…
